%YAML 1.1
%TAG !u! tag:unity3d.com,2011:
--- !u!1045 &1
EditorBuildSettings:
  m_ObjectHideFlags: 0
  serializedVersion: 2
  m_Scenes:
  - enabled: 1
    path: Assets/Game/Scenes/Main.unity
    guid: 9fc0d4010bbf28b4594072e72b8655ab
  - enabled: 1
    path: Assets/Game/Scenes/Menu.unity
    guid: c8aa0ba7eb94f4b9fb68e0f4953180cb
  - enabled: 0
    path: Assets/Game/Scenes/Locomotion.unity
    guid: 024cd9dcd49bd8f46a6bea03aa8a21bb
  m_configObjects:
    com.unity.xr.management.loader_settings: {fileID: 11400000, guid: 98b2578ab5d084188b8662554054920a,
      type: 2}
